<?xml version="1.0" encoding="UTF-8"?>
<svg width="24px" height="19px" viewBox="0 0 24 19" version="1.1" xmlns="http://www.w3.org/2000/svg" xmlns:xlink="http://www.w3.org/1999/xlink">
    <!-- Generator: Sketch 46.2 (44496) - http://www.bohemiancoding.com/sketch -->
    <title>Page 1</title>
    <desc>Created with Sketch.</desc>
    <defs>
        <polygon id="path-1" points="2.13166073e-16 18.719952 2.13166073e-16 0 23.999952 0 23.999952 18.719952"></polygon>
    </defs>
    <g id="DESIGN" stroke="none" stroke-width="1" fill="none" fill-rule="evenodd">
        <g id="Ideas-screen---founded-idea" transform="translate(-15.000000, -18.000000)">
            <g id="Page-1" transform="translate(15.000000, 18.000000)">
                <mask id="mask-2" fill="white">
                    <use xlink:href="#path-1"></use>
                </mask>
                <g id="Clip-2"></g>
                <path d="M21.971712,14.399952 L2.028192,14.399952 C0.908112,14.399952 -4.8e-05,15.317472 -4.8e-05,16.449312 C-4.8e-05,17.581152 0.908112,18.719952 2.028192,18.719952 L21.971712,18.719952 C23.091792,18.719952 23.999952,17.580912 23.999952,16.449312 C23.999952,15.317712 23.091792,14.399952 21.971712,14.399952 M2.028192,4.319952 L21.971712,4.319952 C23.091792,4.319952 23.999952,3.180912 23.999952,2.049312 C23.999952,0.917712 23.091792,-4.8e-05 21.971712,-4.8e-05 L2.028192,-4.8e-05 C0.908112,-4.8e-05 -4.8e-05,0.917472 -4.8e-05,2.049312 C-4.8e-05,3.181152 0.908112,4.319952 2.028192,4.319952 M21.971712,7.199952 L2.028192,7.199952 C0.908112,7.199952 -4.8e-05,8.117472 -4.8e-05,9.249312 C-4.8e-05,10.381152 0.908112,11.519952 2.028192,11.519952 L21.971712,11.519952 C23.091792,11.519952 23.999952,10.380912 23.999952,9.249312 C23.999952,8.117712 23.091792,7.199952 21.971712,7.199952" id="Fill-1" fill="#FFFFFF" mask="url(#mask-2)"></path>
            </g>
        </g>
    </g>
</svg>