<?xml version="1.0" encoding="UTF-8"?>
<svg width="24px" height="24px" viewBox="0 0 24 24" version="1.1" xmlns="http://www.w3.org/2000/svg" xmlns:xlink="http://www.w3.org/1999/xlink">
    <!-- Generator: Sketch 46.2 (44496) - http://www.bohemiancoding.com/sketch -->
    <title>Page 1</title>
    <desc>Created with Sketch.</desc>
    <defs></defs>
    <g id="DESIGN" stroke="none" stroke-width="1" fill="none" fill-rule="evenodd">
        <g id="Ideas-screen---open-idea" transform="translate(-319.000000, -15.000000)" fill="#FFFFFF">
            <g id="Page-1" transform="translate(319.000000, 15.000000)">
                <path d="M9.88235294,2.11764706 L9.88235294,9.88235294 L2.11764706,9.88235294 C0.948352941,9.88235294 0,10.8307059 0,12 C0,13.1692941 0.948352941,14.1176471 2.11764706,14.1176471 L9.88235294,14.1176471 L9.88235294,21.8823529 C9.88235294,23.0516471 10.8307059,24 12,24 C13.1692941,24 14.1176471,23.0516471 14.1176471,21.8823529 L14.1176471,14.1176471 L21.8823529,14.1176471 C23.0516471,14.1176471 24,13.1692941 24,12 C24,10.8307059 23.0516471,9.88235294 21.8823529,9.88235294 L14.1176471,9.88235294 L14.1176471,2.11764706 C14.1176471,0.948352941 13.1692941,0 12,0 C10.8307059,0 9.88235294,0.948352941 9.88235294,2.11764706 Z" id="Fill-1"></path>
            </g>
        </g>
    </g>
</svg>